sim/tb_top.vcd
$version Generated by VerilatedVcd $end
$timescale 1ps $end
 $scope module $rootio $end
 $upscope $end
 $scope module tb_top $end
  $var wire 1 3 clk $end
  $var wire 1 8 reset $end
  $var wire 4 4 led [3:0] $end
  $var wire 1 8 rxd $end
  $var wire 1 8 txd $end
  $var wire 4 5 prev_led [3:0] $end
  $scope module uut $end
   $var wire 1 3 clk $end
   $var wire 1 8 reset $end
   $var wire 4 4 led [3:0] $end
   $var wire 1 8 rxd_i $end
   $var wire 1 8 txd_o $end
   $var wire 1 6 clk_internal $end
   $var wire 1 9 resetn $end
   $var wire 4 7 pc [3:0] $end
   $var wire 4 # mem[0] [3:0] $end
   $var wire 4 $ mem[1] [3:0] $end
   $var wire 4 % mem[2] [3:0] $end
   $var wire 4 & mem[3] [3:0] $end
   $var wire 4 ' mem[4] [3:0] $end
   $var wire 4 ( mem[5] [3:0] $end
   $var wire 4 ) mem[6] [3:0] $end
   $var wire 4 * mem[7] [3:0] $end
   $var wire 4 + mem[8] [3:0] $end
   $var wire 4 , mem[9] [3:0] $end
   $var wire 4 - mem[10] [3:0] $end
   $var wire 4 . mem[11] [3:0] $end
   $var wire 4 / mem[12] [3:0] $end
   $var wire 4 0 mem[13] [3:0] $end
   $var wire 4 1 mem[14] [3:0] $end
   $var wire 4 2 mem[15] [3:0] $end
   $var wire 4 4 led_val [3:0] $end
   $scope module cw_inst $end
    $var wire 32 : SLOW [31:0] $end
    $var wire 1 3 clk $end
    $var wire 1 8 reset $end
    $var wire 1 6 clk_o $end
    $var wire 1 9 resetn $end
    $var wire 1 6 slow_clk [0:0] $end
   $upscope $end
  $upscope $end
 $upscope $end
$enddefinitions $end


#0
b0000 #
b0001 $
b0010 %
b0100 &
b1000 '
b0000 (
b0001 )
b0010 *
b0100 +
b1000 ,
b1001 -
b1010 .
b1100 /
b1101 0
b1110 1
b1111 2
03
b0000 4
b0000 5
06
b0000 7
08
19
b00000000000000000000000000000000 :
#1
13
16
b0001 7
#2
03
#3
13
06
#4
03
#5
13
b0001 4
16
b0010 7
#6
03
b0001 5
#7
13
06
#8
03
#9
13
b0010 4
16
b0011 7
#10
03
b0010 5
#11
13
06
#12
03
#13
13
b0100 4
16
b0100 7
#14
03
b0100 5
#15
13
06
#16
03
#17
13
b1000 4
16
b0101 7
#18
03
b1000 5
#19
13
06
#20
03
#21
13
b0000 4
16
b0110 7
#22
03
b0000 5
#23
13
06
#24
03
#25
13
b0001 4
16
b0111 7
#26
03
b0001 5
#27
13
06
#28
03
#29
13
b0010 4
16
b1000 7
#30
03
b0010 5
#31
13
06
#32
03
#33
13
b0100 4
16
b1001 7
#34
03
b0100 5
#35
13
06
#36
03
#37
13
b1000 4
16
b1010 7
#38
03
b1000 5
#39
13
06
#40
03
#41
13
b1001 4
16
b1011 7
#42
03
b1001 5
#43
13
06
#44
03
#45
13
b1010 4
16
b1100 7
#46
03
b1010 5
#47
13
06
#48
03
#49
13
b1100 4
16
b1101 7
#50
03
b1100 5
#51
13
06
#52
03
#53
13
b1101 4
16
b1110 7
#54
03
b1101 5
#55
13
06
#56
03
#57
13
b1110 4
16
b1111 7
#58
03
b1110 5
#59
13
06
#60
03
#61
13
b1111 4
16
b0000 7
#62
03
b1111 5
#63
13
06
#64
03
#65
13
b0000 4
16
b0001 7
#66
03
b0000 5
#67
13
06
#68
03
#69
13
b0001 4
16
b0010 7
#70
03
b0001 5
#71
13
06
#72
03
#73
13
b0010 4
16
b0011 7
#74
03
b0010 5
#75
13
06
#76
03
#77
13
b0100 4
16
b0100 7
#78
03
b0100 5
#79
13
06
#80
03
#81
13
b1000 4
16
b0101 7
#82
03
b1000 5
#83
13
06
#84
03
#85
13
b0000 4
16
b0110 7
#86
03
b0000 5
#87
13
06
#88
03
#89
13
b0001 4
16
b0111 7
#90
03
b0001 5
#91
13
06
#92
03
#93
13
b0010 4
16
b1000 7
#94
03
b0010 5
#95
13
06
#96
03
#97
13
b0100 4
16
b1001 7
#98
03
b0100 5
#99
13
06
#100
03
#101
13
b1000 4
16
b1010 7
#102
03
b1000 5
#103
13
06
#104
03
#105
13
b1001 4
16
b1011 7
#106
03
b1001 5
#107
13
06
#108
03
#109
13
b1010 4
16
b1100 7
#110
03
b1010 5
#111
13
06
#112
03
#113
13
b1100 4
16
b1101 7
#114
03
b1100 5
#115
13
06
#116
03
#117
13
b1101 4
16
b1110 7
#118
03
b1101 5
#119
13
06
#120
03
#121
13
b1110 4
16
b1111 7
#122
03
b1110 5
#123
13
06
#124
03
#125
13
b1111 4
16
b0000 7
#126
03
b1111 5
#127
13
06
#128
03
#129
13
b0000 4
16
b0001 7
#130
03
b0000 5
#131
13
06
#132
03
#133
13
b0001 4
16
b0010 7
#134
03
b0001 5
#135
13
06
#136
03
#137
13
b0010 4
16
b0011 7
#138
03
b0010 5
#139
13
06
#140
03
#141
13
b0100 4
16
b0100 7
#142
03
b0100 5
#143
13
06
#144
03
#145
13
b1000 4
16
b0101 7
#146
03
b1000 5
#147
13
06
#148
03
#149
13
b0000 4
16
b0110 7
#150
03
b0000 5
#151
13
06
#152
03
#153
13
b0001 4
16
b0111 7
#154
03
b0001 5
#155
13
06
#156
03
#157
13
b0010 4
16
b1000 7
#158
03
b0010 5
#159
13
06
#160
03
#161
13
b0100 4
16
b1001 7
#162
03
b0100 5
#163
13
06
#164
03
#165
13
b1000 4
16
b1010 7
#166
03
b1000 5
#167
13
06
#168
03
#169
13
b1001 4
16
b1011 7
#170
03
b1001 5
#171
13
06
#172
03
#173
13
b1010 4
16
b1100 7
#174
03
b1010 5
#175
13
06
#176
03
#177
13
b1100 4
16
b1101 7
#178
03
b1100 5
#179
13
06
#180
03
#181
13
b1101 4
16
b1110 7
#182
03
b1101 5
#183
13
06
#184
03
#185
13
b1110 4
16
b1111 7
#186
03
b1110 5
#187
13
06
#188
03
#189
13
b1111 4
16
b0000 7
#190
03
b1111 5
#191
13
06
#192
03
#193
13
b0000 4
16
b0001 7
#194
03
b0000 5
#195
13
06
#196
03
#197
13
b0001 4
16
b0010 7
#198
03
b0001 5
#199
13
06
#200
03
#201
13
b0010 4
16
b0011 7
#202
03
b0010 5
#203
13
06
#204
03
#205
13
b0100 4
16
b0100 7
#206
03
b0100 5
#207
13
06
#208
03
#209
13
b1000 4
16
b0101 7
#210
03
b1000 5
#211
13
06
#212
03
#213
13
b0000 4
16
b0110 7
#214
03
b0000 5
#215
13
06
#216
03
#217
13
b0001 4
16
b0111 7
#218
03
b0001 5
#219
13
06
#220
03
#221
13
b0010 4
16
b1000 7
#222
03
b0010 5
#223
13
06
#224
03
#225
13
b0100 4
16
b1001 7
#226
03
b0100 5
#227
13
06
#228
03
#229
13
b1000 4
16
b1010 7
#230
03
b1000 5
#231
13
06
#232
03
#233
13
b1001 4
16
b1011 7
#234
03
b1001 5
#235
13
06
#236
03
#237
13
b1010 4
16
b1100 7
#238
03
b1010 5
#239
13
06
#240
03
#241
13
b1100 4
16
b1101 7
#242
03
b1100 5
#243
13
06
#244
03
#245
13
b1101 4
16
b1110 7
#246
03
b1101 5
#247
13
06
#248
03
#249
13
b1110 4
16
b1111 7
#250
03
b1110 5
#251
13
06
#252
03
#253
13
b1111 4
16
b0000 7
#254
03
b1111 5
#255
13
06
#256
03
#257
13
b0000 4
16
b0001 7
#258
03
b0000 5
#259
13
06
#260
03
#261
13
b0001 4
16
b0010 7
#262
03
b0001 5
#263
13
06
#264
03
#265
13
b0010 4
16
b0011 7
#266
03
b0010 5
#267
13
06
#268
03
#269
13
b0100 4
16
b0100 7
#270
03
b0100 5
#271
13
06
#272
03
#273
13
b1000 4
16
b0101 7
#274
03
b1000 5
#275
13
06
#276
03
#277
13
b0000 4
16
b0110 7
#278
03
b0000 5
#279
13
06
#280
03
#281
13
b0001 4
16
b0111 7
#282
03
b0001 5
#283
13
06
#284
03
#285
13
b0010 4
16
b1000 7
#286
03
b0010 5
#287
13
06
#288
03
#289
13
b0100 4
16
b1001 7
#290
03
b0100 5
#291
13
06
#292
03
#293
13
b1000 4
16
b1010 7
#294
03
b1000 5
#295
13
06
#296
03
#297
13
b1001 4
16
b1011 7
#298
03
b1001 5
#299
13
06
#300
03
#301
13
b1010 4
16
b1100 7
#302
03
b1010 5
#303
13
06
#304
03
#305
13
b1100 4
16
b1101 7
#306
03
b1100 5
#307
13
06
#308
03
#309
13
b1101 4
16
b1110 7
#310
03
b1101 5
#311
13
06
#312
03
#313
13
b1110 4
16
b1111 7
#314
03
b1110 5
#315
13
06
#316
03
#317
13
b1111 4
16
b0000 7
#318
03
b1111 5
#319
13
06
#320
03
#321
13
b0000 4
16
b0001 7
#322
03
b0000 5
#323
13
06
#324
03
#325
13
b0001 4
16
b0010 7
#326
03
b0001 5
#327
13
06
#328
03
#329
13
b0010 4
16
b0011 7
#330
03
b0010 5
#331
13
06
#332
03
#333
13
b0100 4
16
b0100 7
#334
03
b0100 5
#335
13
06
#336
03
#337
13
b1000 4
16
b0101 7
#338
03
b1000 5
#339
13
06
#340
03
#341
13
b0000 4
16
b0110 7
#342
03
b0000 5
#343
13
06
#344
03
#345
13
b0001 4
16
b0111 7
#346
03
b0001 5
#347
13
06
#348
03
#349
13
b0010 4
16
b1000 7
#350
03
b0010 5
#351
13
06
#352
03
#353
13
b0100 4
16
b1001 7
#354
03
b0100 5
#355
13
06
#356
03
#357
13
b1000 4
16
b1010 7
#358
03
b1000 5
#359
13
06
#360
03
#361
13
b1001 4
16
b1011 7
#362
03
b1001 5
#363
13
06
#364
03
#365
13
b1010 4
16
b1100 7
#366
03
b1010 5
#367
13
06
#368
03
#369
13
b1100 4
16
b1101 7
#370
03
b1100 5
#371
13
06
#372
03
#373
13
b1101 4
16
b1110 7
#374
03
b1101 5
#375
13
06
#376
03
#377
13
b1110 4
16
b1111 7
#378
03
b1110 5
#379
13
06
#380
03
#381
13
b1111 4
16
b0000 7
#382
03
b1111 5
#383
13
06
#384
03
#385
13
b0000 4
16
b0001 7
#386
03
b0000 5
#387
13
06
#388
03
#389
13
b0001 4
16
b0010 7
#390
03
b0001 5
#391
13
06
#392
03
#393
13
b0010 4
16
b0011 7
#394
03
b0010 5
#395
13
06
#396
03
#397
13
b0100 4
16
b0100 7
#398
03
b0100 5
#399
13
06
#400
03
#401
13
b1000 4
16
b0101 7
#402
03
b1000 5
#403
13
06
#404
03
#405
13
b0000 4
16
b0110 7
#406
03
b0000 5
#407
13
06
#408
03
#409
13
b0001 4
16
b0111 7
#410
03
b0001 5
#411
13
06
#412
03
#413
13
b0010 4
16
b1000 7
#414
03
b0010 5
#415
13
06
#416
03
#417
13
b0100 4
16
b1001 7
#418
03
b0100 5
#419
13
06
#420
03
#421
13
b1000 4
16
b1010 7
#422
03
b1000 5
#423
13
06
#424
03
#425
13
b1001 4
16
b1011 7
#426
03
b1001 5
#427
13
06
#428
03
#429
13
b1010 4
16
b1100 7
#430
03
b1010 5
#431
13
06
#432
03
#433
13
b1100 4
16
b1101 7
#434
03
b1100 5
#435
13
06
#436
03
#437
13
b1101 4
16
b1110 7
#438
03
b1101 5
#439
13
06
#440
03
#441
13
b1110 4
16
b1111 7
#442
03
b1110 5
#443
13
06
#444
03
#445
13
b1111 4
16
b0000 7
#446
03
b1111 5
#447
13
06
#448
03
#449
13
b0000 4
16
b0001 7
#450
03
b0000 5
#451
13
06
#452
03
#453
13
b0001 4
16
b0010 7
#454
03
b0001 5
#455
13
06
#456
03
#457
13
b0010 4
16
b0011 7
#458
03
b0010 5
#459
13
06
#460
03
#461
13
b0100 4
16
b0100 7
#462
03
b0100 5
#463
13
06
#464
03
#465
13
b1000 4
16
b0101 7
#466
03
b1000 5
#467
13
06
#468
03
#469
13
b0000 4
16
b0110 7
#470
03
b0000 5
#471
13
06
#472
03
#473
13
b0001 4
16
b0111 7
#474
03
b0001 5
#475
13
06
#476
03
#477
13
b0010 4
16
b1000 7
#478
03
b0010 5
#479
13
06
#480
03
#481
13
b0100 4
16
b1001 7
#482
03
b0100 5
#483
13
06
#484
03
#485
13
b1000 4
16
b1010 7
#486
03
b1000 5
#487
13
06
#488
03
#489
13
b1001 4
16
b1011 7
#490
03
b1001 5
#491
13
06
#492
03
#493
13
b1010 4
16
b1100 7
#494
03
b1010 5
#495
13
06
#496
03
#497
13
b1100 4
16
b1101 7
#498
03
b1100 5
